【自動送信】お問い合わせありがとうございます。

{name} 様

お問い合わせいただき、ありがとうございます。
お問い合わせいただきました内容は、担当者が
確認させていただき、改めてご回答申し上げます。

※このメールは、システムにより自動的に送信しております。
　本メールへのご返信はできませんので、恐れ入りますが、
　お問い合わせは下記よりお願いいたします。

--
---------------------------------------
株式会社TOHOKU IT FACTORY
http://tohokuitfactory.com/

〒980-0811 宮城県仙台市青葉区一番町二丁目5番5号東一中央ビル(A棟) 5F
TEL：022-281-8378
---------------------------------------